56 0.664583 0.742647 0.169792 0.481618
56 0.479167 0.648897 0.128125 0.365809
0 0.547917 0.472426 0.087500 0.292279
62 0.895833 0.292279 0.066667 0.062500
63 0.818750 0.507353 0.078125 0.119485
0 0.817708 0.378676 0.064583 0.262868
0 0.750000 0.599265 0.187500 0.516544
0 0.466667 0.327206 0.116667 0.209559
62 0.973958 0.443015 0.048958 0.165441
