0 0.659375 0.591912 0.165625 0.602941
0 0.579167 0.343750 0.091667 0.437500
62 0.947917 0.169118 0.057292 0.086397
56 0.105208 0.457721 0.062500 0.253676
0 0.934375 0.674632 0.122917 0.564338
63 0.952083 0.380515 0.084375 0.218750
62 0.245833 0.470588 0.260417 0.525735
