0 0.480208 0.380515 0.078125 0.358456
0 0.105208 0.404412 0.171875 0.551471
58 0.860417 0.240809 0.073958 0.187500
56 0.203125 0.659926 0.327083 0.654412
56 0.415625 0.529412 0.076042 0.222426
62 0.898958 0.582721 0.072917 0.387868
62 0.788542 0.606618 0.123958 0.207721
0 0.416667 0.411765 0.078125 0.238971
62 0.739583 0.283088 0.030208 0.044118
