56 0.752083 0.726103 0.178125 0.544118
0 0.854167 0.586397 0.188542 0.678309
56 0.058333 0.744485 0.113542 0.468750
64 0.234375 0.608456 0.040625 0.040441
0 0.588542 0.262868 0.086458 0.240809
66 0.176042 0.604779 0.077083 0.095588
0 0.676042 0.413603 0.137500 0.365809
56 0.518750 0.468750 0.092708 0.251838
0 0.801042 0.211397 0.043750 0.106618
62 0.254167 0.395221 0.069792 0.268382
