56 0.067708 0.670956 0.129167 0.634191
56 0.751042 0.724265 0.187500 0.538603
0 0.586458 0.402574 0.131250 0.516544
63 0.204167 0.518382 0.085417 0.108456
0 0.848958 0.213235 0.040625 0.084559
0 0.864583 0.501838 0.230208 0.472426
62 0.916667 0.211397 0.043750 0.051471
62 0.358333 0.415441 0.035417 0.139706
