0 0.521875 0.553309 0.147917 0.764706
56 0.827083 0.724265 0.181250 0.474265
62 0.954167 0.369485 0.071875 0.082721
56 0.681250 0.544118 0.069792 0.250000
62 0.889583 0.340074 0.072917 0.145221
0 0.220833 0.525735 0.160417 0.766544
