0 0.504167 0.387868 0.067708 0.330882
0 0.740625 0.393382 0.063542 0.194853
62 0.676042 0.417279 0.076042 0.204044
62 0.832292 0.590074 0.150000 0.365809
0 0.330208 0.400735 0.086458 0.215074
62 0.625000 0.345588 0.035417 0.104779
56 0.416667 0.531250 0.088542 0.292279
66 0.907292 0.783088 0.164583 0.141544
56 0.193750 0.755515 0.232292 0.408088
56 0.353125 0.768382 0.207292 0.420956
58 0.561458 0.443015 0.039583 0.170956
0 0.861458 0.402574 0.059375 0.091912
58 0.033333 0.483456 0.067708 0.202206
62 0.976042 0.371324 0.045833 0.148897
62 0.222917 0.376838 0.050000 0.112132
41 0.163542 0.542279 0.017708 0.051471
