0 0.659375 0.591912 0.166667 0.606618
0 0.579167 0.345588 0.093750 0.435662
56 0.108333 0.459559 0.065625 0.242647
63 0.950000 0.382353 0.086458 0.215074
62 0.946875 0.170956 0.058333 0.088235
62 0.247917 0.472426 0.253125 0.531250
