56 0.632292 0.733456 0.170833 0.507353
0 0.777083 0.347426 0.060417 0.237132
56 0.468750 0.597426 0.132292 0.347426
0 0.708333 0.542279 0.165625 0.450368
62 0.935417 0.409926 0.085417 0.187500
0 0.479167 0.400735 0.122917 0.380515
62 0.856250 0.275735 0.068750 0.066176
62 0.662500 0.272059 0.034375 0.049632
