0 0.888542 0.676471 0.219792 0.545956
0 0.480208 0.450368 0.108333 0.420956
56 0.529167 0.792279 0.160417 0.393382
62 0.978125 0.318015 0.040625 0.075368
62 0.756250 0.310662 0.036458 0.051471
63 0.664583 0.470588 0.054167 0.077206
56 0.722917 0.795956 0.127083 0.395221
0 0.909375 0.349265 0.068750 0.181985
