0 0.472917 0.406250 0.077083 0.340074
56 0.182292 0.781250 0.261458 0.406250
0 0.109375 0.303309 0.055208 0.227941
56 0.375000 0.610294 0.128125 0.378676
56 0.170833 0.538603 0.085417 0.270221
62 0.060417 0.400735 0.102083 0.174632
0 0.353125 0.341912 0.045833 0.106618
