0 0.476042 0.573529 0.119792 0.847426
56 0.812500 0.724265 0.250000 0.463235
56 0.682292 0.544118 0.064583 0.237132
62 0.956250 0.378676 0.069792 0.082721
56 0.568750 0.472426 0.061458 0.196691
56 0.583333 0.544118 0.094792 0.308824
