0 0.521875 0.454044 0.132292 0.575368
2 0.043750 0.378676 0.087500 0.139706
2 0.048958 0.308824 0.070833 0.056985
0 0.623958 0.270221 0.039583 0.104779
0 0.695833 0.284926 0.041667 0.128676
2 0.108333 0.301471 0.056250 0.056985
58 0.380208 0.523897 0.058333 0.091912
