0 0.471875 0.579044 0.192708 0.836397
56 0.817708 0.733456 0.245833 0.454044
56 0.682292 0.584559 0.070833 0.277574
63 0.950000 0.575368 0.081250 0.132353
62 0.956250 0.400735 0.067708 0.088235
56 0.592708 0.582721 0.075000 0.240809
