0 0.456250 0.376838 0.082292 0.371324
0 0.052083 0.468750 0.102083 0.715074
63 0.902083 0.792279 0.167708 0.270221
0 0.106250 0.272059 0.042708 0.220588
56 0.373958 0.544118 0.093750 0.270221
0 0.334375 0.306985 0.042708 0.095588
58 0.854167 0.270221 0.068750 0.202206
