56 0.630208 0.729779 0.169792 0.501838
0 0.773958 0.351103 0.061458 0.246324
56 0.467708 0.617647 0.130208 0.266544
0 0.479167 0.402574 0.122917 0.384191
62 0.930208 0.408088 0.084375 0.191176
0 0.706250 0.538603 0.163542 0.441176
62 0.660417 0.270221 0.034375 0.049632
62 0.853125 0.272059 0.069792 0.062500
