56 0.753125 0.722426 0.189583 0.551471
0 0.839583 0.545956 0.198958 0.573529
56 0.592708 0.525735 0.137500 0.398897
0 0.737500 0.211397 0.040625 0.154412
62 0.814583 0.170956 0.062500 0.068015
0 0.558333 0.259191 0.086458 0.244485
0 0.637500 0.409926 0.132292 0.382353
66 0.120833 0.661765 0.081250 0.117647
56 0.472917 0.481618 0.123958 0.226103
