56 0.598958 0.656250 0.163542 0.487132
0 0.912500 0.656250 0.172917 0.645221
0 0.738542 0.318015 0.055208 0.227941
0 0.508333 0.400735 0.104167 0.426471
62 0.817708 0.242647 0.065625 0.066176
0 0.671875 0.470588 0.140625 0.384191
56 0.863542 0.801471 0.235417 0.393382
63 0.738542 0.424632 0.065625 0.101103
56 0.454167 0.588235 0.122917 0.259191
62 0.872917 0.352941 0.071875 0.152574
0 0.416667 0.415441 0.081250 0.200368
62 0.639583 0.244485 0.033333 0.045956
