0 0.452083 0.397059 0.075000 0.354779
0 0.093750 0.281250 0.043750 0.211397
56 0.172917 0.757353 0.281250 0.459559
56 0.371875 0.604779 0.097917 0.259191
58 0.854167 0.273897 0.067708 0.204044
0 0.372917 0.455882 0.096875 0.277574
62 0.220833 0.312500 0.028125 0.053309
0 0.031250 0.590074 0.062500 0.814338
