0 0.479167 0.375000 0.079167 0.356618
0 0.073958 0.270221 0.147917 0.351103
58 0.866667 0.259191 0.075000 0.209559
56 0.182292 0.672794 0.364583 0.612132
56 0.408333 0.538603 0.080208 0.259191
63 0.860417 0.674632 0.132292 0.231618
62 0.650000 0.371324 0.058333 0.137868
62 0.896875 0.347426 0.045833 0.086397
