56 0.634375 0.731618 0.179167 0.533088
56 0.468750 0.612132 0.126042 0.376838
0 0.786458 0.347426 0.058333 0.220588
62 0.053125 0.656250 0.101042 0.544118
0 0.475000 0.323529 0.089583 0.211397
62 0.869792 0.283088 0.071875 0.069853
0 0.714583 0.540441 0.154167 0.457721
62 0.951042 0.413603 0.085417 0.178309
