0 0.672917 0.617647 0.158333 0.547794
0 0.905208 0.663603 0.184375 0.571691
0 0.584375 0.402574 0.140625 0.465074
62 0.966667 0.231618 0.053125 0.075368
62 0.327083 0.419118 0.157292 0.349265
62 0.066667 0.729779 0.129167 0.534926
56 0.197917 0.450368 0.076042 0.238971
