0 0.546875 0.483456 0.095833 0.505515
0 0.860417 0.678309 0.238542 0.531250
0 0.642708 0.608456 0.139583 0.455882
63 0.928125 0.604779 0.112500 0.152574
62 0.198958 0.663603 0.113542 0.476103
62 0.945833 0.301471 0.052083 0.068015
62 0.370833 0.419118 0.120833 0.238971
62 0.990625 0.283088 0.015625 0.086397
