0 0.672917 0.615809 0.154167 0.538603
0 0.905208 0.663603 0.183333 0.580882
0 0.585417 0.400735 0.139583 0.459559
62 0.967708 0.231618 0.054167 0.077206
62 0.326042 0.419118 0.158333 0.352941
62 0.063542 0.731618 0.123958 0.533088
56 0.196875 0.452206 0.075000 0.235294
