56 0.526042 0.738971 0.157292 0.415441
0 0.473958 0.465074 0.108333 0.439338
62 0.965625 0.303309 0.056250 0.069853
0 0.863542 0.641544 0.237500 0.490809
63 0.936458 0.579044 0.100000 0.137868
62 0.742708 0.301471 0.042708 0.049632
0 0.896875 0.387868 0.079167 0.242647
56 0.753125 0.788603 0.166667 0.419118
