56 0.067708 0.670956 0.132292 0.636029
56 0.750000 0.724265 0.186458 0.540441
0 0.584375 0.402574 0.134375 0.518382
0 0.852083 0.213235 0.040625 0.086397
62 0.928125 0.218750 0.057292 0.068015
63 0.971875 0.505515 0.054167 0.145221
63 0.206250 0.516544 0.087500 0.097426
0 0.863542 0.498162 0.232292 0.468750
