0 0.503125 0.536765 0.104167 0.509191
62 0.103125 0.659926 0.178125 0.367647
62 0.868750 0.538603 0.073958 0.178309
0 0.741667 0.665441 0.168750 0.498162
63 0.797917 0.562500 0.066667 0.093750
64 0.240625 0.856618 0.042708 0.040441
0 0.583333 0.593750 0.086458 0.340074
62 0.378125 0.450368 0.092708 0.204044
56 0.665625 0.808824 0.153125 0.375000
62 0.358333 0.314338 0.038542 0.047794
