0 0.505208 0.356618 0.073958 0.297794
0 0.068750 0.310662 0.081250 0.295956
56 0.364583 0.770221 0.254167 0.413603
0 0.726042 0.318015 0.048958 0.084559
62 0.233333 0.345588 0.046875 0.108456
62 0.955208 0.650735 0.087500 0.373162
0 0.315625 0.593750 0.144792 0.386029
62 0.739583 0.470588 0.069792 0.238971
62 0.947917 0.338235 0.060417 0.128676
62 0.666667 0.351103 0.042708 0.115809
62 0.628125 0.305147 0.026042 0.069853
