56 0.327083 0.687500 0.198958 0.536765
0 0.636458 0.400735 0.115625 0.468750
0 0.898958 0.481618 0.159375 0.384191
62 0.165625 0.386029 0.147917 0.150735
0 0.506250 0.321691 0.070833 0.240809
0 0.046875 0.257353 0.069792 0.125000
0 0.261458 0.240809 0.077083 0.102941
56 0.081250 0.790441 0.163542 0.415441
0 0.832292 0.318015 0.039583 0.113971
