56 0.313542 0.726103 0.202083 0.544118
0 0.609375 0.419118 0.110417 0.457721
0 0.907292 0.477941 0.164583 0.367647
56 0.477083 0.523897 0.140625 0.387868
62 0.135417 0.400735 0.152083 0.169118
56 0.091667 0.814338 0.181250 0.367647
0 0.454167 0.329044 0.082292 0.229779
0 0.777083 0.314338 0.037500 0.101103
60 0.788542 0.786765 0.387500 0.362132
