0 0.467708 0.577206 0.184375 0.841912
56 0.817708 0.726103 0.245833 0.452206
62 0.958333 0.389706 0.066667 0.080882
56 0.684375 0.551471 0.064583 0.218750
63 0.948958 0.560662 0.081250 0.128676
56 0.593750 0.584559 0.082292 0.246324
