0 0.487500 0.406250 0.082292 0.367647
0 0.204167 0.452206 0.147917 0.522059
0 0.831250 0.487132 0.097917 0.248162
63 0.771875 0.599265 0.088542 0.218750
58 0.833333 0.253676 0.052083 0.139706
56 0.242708 0.740809 0.277083 0.479779
