0 0.367708 0.731618 0.254167 0.433824
58 0.946875 0.329044 0.087500 0.250000
62 0.133333 0.665441 0.228125 0.422794
0 0.811458 0.319853 0.051042 0.121324
0 0.650000 0.306985 0.053125 0.139706
62 0.898958 0.693015 0.198958 0.569853
