0 0.515625 0.507353 0.146875 0.463235
2 0.796875 0.389706 0.117708 0.071691
58 0.353125 0.580882 0.082292 0.148897
58 0.452083 0.590074 0.064583 0.125000
2 0.934375 0.384191 0.091667 0.060662
58 0.398958 0.391544 0.083333 0.196691
58 0.371875 0.479779 0.138542 0.351103
