0 0.832292 0.380515 0.115625 0.439338
0 0.379167 0.509191 0.137500 0.527574
0 0.762500 0.426471 0.079167 0.455882
62 0.941667 0.459559 0.109375 0.165441
56 0.979167 0.674632 0.039583 0.409926
62 0.958333 0.250000 0.076042 0.097426
