0 0.471875 0.580882 0.194792 0.834559
56 0.818750 0.733456 0.247917 0.461397
56 0.682292 0.588235 0.068750 0.272059
62 0.957292 0.400735 0.066667 0.079044
56 0.595833 0.584559 0.072917 0.235294
63 0.948958 0.577206 0.082292 0.125000
