0 0.490625 0.349265 0.092708 0.367647
58 0.215625 0.599265 0.183333 0.240809
2 0.566667 0.321691 0.115625 0.086397
58 0.081250 0.349265 0.133333 0.288603
58 0.042708 0.625000 0.083333 0.209559
2 0.948958 0.341912 0.063542 0.056985
