0 0.505208 0.551471 0.098958 0.525735
63 0.817708 0.571691 0.069792 0.104779
62 0.895833 0.544118 0.078125 0.191176
62 0.086458 0.720588 0.168750 0.487132
56 0.587500 0.670956 0.085417 0.246324
0 0.745833 0.608456 0.141667 0.404412
0 0.589583 0.542279 0.076042 0.251838
62 0.377083 0.452206 0.093750 0.205882
62 0.360417 0.310662 0.040625 0.049632
