62 0.794792 0.762868 0.269792 0.446691
0 0.737500 0.490809 0.070833 0.104779
62 0.553125 0.534926 0.077083 0.235294
0 0.707292 0.419118 0.042708 0.165441
0 0.607292 0.547794 0.044792 0.165441
0 0.957292 0.533088 0.064583 0.185662
