56 0.854167 0.742647 0.288542 0.509191
0 0.672917 0.375000 0.105208 0.389706
56 0.478125 0.511029 0.131250 0.248162
0 0.747917 0.343750 0.067708 0.242647
0 0.903125 0.404412 0.128125 0.193015
56 0.197917 0.727941 0.185417 0.533088
0 0.388542 0.270221 0.039583 0.082721
