0 0.530208 0.487132 0.114583 0.476103
63 0.741667 0.516544 0.064583 0.090074
56 0.563542 0.878676 0.201042 0.238971
62 0.796875 0.479779 0.057292 0.136029
62 0.819792 0.318015 0.038542 0.055147
62 0.854167 0.299632 0.032292 0.066176
