0 0.481250 0.380515 0.077083 0.358456
0 0.106250 0.409926 0.169792 0.556985
0 0.248958 0.661765 0.244792 0.579044
58 0.857292 0.238971 0.076042 0.185662
56 0.414583 0.525735 0.076042 0.222426
62 0.787500 0.602941 0.127083 0.211397
0 0.416667 0.411765 0.079167 0.242647
