0 0.743750 0.448529 0.061458 0.080882
62 0.748958 0.676471 0.171875 0.450368
0 0.094792 0.606618 0.158333 0.540441
0 0.680208 0.387868 0.046875 0.163603
0 0.625000 0.514706 0.046875 0.145221
56 0.141667 0.775735 0.251042 0.443015
62 0.893750 0.474265 0.050000 0.134191
62 0.567708 0.488971 0.064583 0.198529
66 0.877083 0.889706 0.089583 0.090074
