0 0.493750 0.545956 0.170833 0.722426
56 0.833333 0.718750 0.188542 0.516544
0 0.255208 0.387868 0.166667 0.400735
56 0.683333 0.544118 0.068750 0.250000
62 0.964583 0.369485 0.064583 0.086397
56 0.597917 0.549632 0.072917 0.253676
