0 0.569792 0.406250 0.103125 0.516544
56 0.100000 0.650735 0.177083 0.560662
0 0.797917 0.452206 0.148958 0.358456
63 0.934375 0.479779 0.108333 0.181985
62 0.389583 0.408088 0.042708 0.126838
0 0.912500 0.240809 0.046875 0.121324
0 0.719792 0.389706 0.088542 0.255515
