56 0.752083 0.720588 0.192708 0.553309
0 0.839583 0.547794 0.194792 0.564338
0 0.636458 0.465074 0.125000 0.488971
56 0.586458 0.529412 0.140625 0.428309
0 0.720833 0.211397 0.039583 0.154412
62 0.797917 0.176471 0.063542 0.069853
0 0.956250 0.237132 0.071875 0.090074
0 0.548958 0.264706 0.087500 0.261029
56 0.450000 0.476103 0.095833 0.264706
63 0.966667 0.479779 0.064583 0.194853
