56 0.864583 0.735294 0.261458 0.500000
56 0.445833 0.514706 0.137500 0.264706
56 0.137500 0.654412 0.216667 0.382353
0 0.680208 0.334559 0.082292 0.343750
0 0.334375 0.253676 0.042708 0.082721
0 0.761458 0.255515 0.030208 0.102941
0 0.525000 0.235294 0.033333 0.071691
0 0.909375 0.266544 0.034375 0.053309
0 0.816667 0.283088 0.027083 0.045956
0 0.906250 0.391544 0.137500 0.209559
