0 0.516667 0.490809 0.137500 0.437500
58 0.358333 0.579044 0.081250 0.148897
2 0.795833 0.389706 0.111458 0.071691
58 0.453125 0.588235 0.061458 0.123162
2 0.947917 0.386029 0.091667 0.060662
58 0.403125 0.389706 0.082292 0.187500
