0 0.646875 0.389706 0.098958 0.349265
0 0.908333 0.351103 0.064583 0.194853
0 0.955208 0.525735 0.086458 0.413603
0 0.568750 0.308824 0.029167 0.042279
56 0.820833 0.738971 0.240625 0.446691
56 0.484375 0.558824 0.103125 0.110294
56 0.360417 0.542279 0.125000 0.176471
56 0.897917 0.680147 0.161458 0.466912
