0 0.455208 0.400735 0.078125 0.354779
56 0.170833 0.744485 0.295833 0.483456
0 0.097917 0.284926 0.044792 0.202206
56 0.375000 0.606618 0.103125 0.279412
58 0.861458 0.283088 0.065625 0.205882
28 0.917708 0.387868 0.046875 0.093750
0 0.372917 0.463235 0.103125 0.281250
