0 0.526042 0.485294 0.107292 0.483456
63 0.734375 0.507353 0.061458 0.084559
62 0.782292 0.474265 0.057292 0.143382
0 0.972917 0.409926 0.047917 0.310662
56 0.562500 0.775735 0.221875 0.406250
62 0.812500 0.316176 0.035417 0.055147
0 0.668750 0.602941 0.143750 0.439338
