0 0.580208 0.452206 0.090625 0.658088
2 0.531250 0.284926 0.043750 0.049632
2 0.681250 0.321691 0.086458 0.126838
39 0.507292 0.751838 0.038542 0.169118
2 0.182292 0.275735 0.109375 0.091912
2 0.390625 0.270221 0.040625 0.029412
