56 0.169792 0.748162 0.280208 0.466912
0 0.944792 0.738971 0.103125 0.487132
62 0.684375 0.547794 0.138542 0.275735
0 0.138542 0.538603 0.164583 0.498162
62 0.876042 0.422794 0.045833 0.101103
0 0.955208 0.441176 0.044792 0.117647
0 0.610417 0.347426 0.040625 0.156250
58 0.823958 0.481618 0.116667 0.222426
0 0.741667 0.520221 0.065625 0.318015
