0 0.666667 0.402574 0.080208 0.343750
0 0.870833 0.375000 0.065625 0.196691
56 0.856250 0.755515 0.256250 0.465074
56 0.451042 0.595588 0.110417 0.130515
56 0.321875 0.729779 0.147917 0.468750
0 0.723958 0.316176 0.036458 0.113971
0 0.531250 0.319853 0.029167 0.069853
56 0.566667 0.522059 0.076042 0.213235
58 0.448958 0.312500 0.045833 0.099265
62 0.782292 0.470588 0.071875 0.189338
0 0.956250 0.472426 0.085417 0.237132
0 0.978125 0.340074 0.033333 0.150735
