0 0.471875 0.551471 0.139583 0.816176
56 0.813542 0.724265 0.244792 0.459559
56 0.682292 0.544118 0.065625 0.240809
56 0.583333 0.542279 0.097917 0.306985
62 0.957292 0.380515 0.069792 0.080882
56 0.570833 0.477941 0.063542 0.193015
