0 0.491667 0.441176 0.107292 0.452206
0 0.298958 0.387868 0.100000 0.301471
41 0.911458 0.887868 0.055208 0.136029
56 0.336458 0.670956 0.186458 0.450368
0 0.940625 0.597426 0.111458 0.452206
62 0.789583 0.606618 0.125000 0.373162
41 0.948958 0.821691 0.040625 0.158088
58 0.821875 0.253676 0.043750 0.128676
