62 0.722917 0.661765 0.164583 0.448529
0 0.665625 0.375000 0.047917 0.147059
0 0.744792 0.426471 0.056250 0.066176
0 0.128125 0.602941 0.152083 0.566176
56 0.184375 0.748162 0.192708 0.454044
66 0.851042 0.832721 0.094792 0.088235
62 0.893750 0.454044 0.048958 0.113971
62 0.505208 0.454044 0.041667 0.113971
58 0.839583 0.533088 0.088542 0.246324
