62 0.707292 0.606618 0.151042 0.347426
0 0.131250 0.601103 0.166667 0.558824
0 0.641667 0.406250 0.060417 0.222426
56 0.175000 0.751838 0.244792 0.452206
58 0.835417 0.527574 0.096875 0.261029
0 0.739583 0.420956 0.060417 0.073529
0 0.969792 0.474265 0.051042 0.143382
0 0.881250 0.733456 0.210417 0.406250
62 0.890625 0.444853 0.047917 0.110294
