0 0.479167 0.579044 0.122917 0.838235
56 0.812500 0.724265 0.248958 0.463235
56 0.682292 0.544118 0.064583 0.237132
62 0.956250 0.378676 0.069792 0.080882
56 0.569792 0.472426 0.062500 0.196691
56 0.583333 0.544118 0.094792 0.308824
