0 0.503125 0.343750 0.068750 0.329044
56 0.394792 0.683824 0.184375 0.511029
0 0.107292 0.253676 0.060417 0.251838
0 0.390625 0.305147 0.052083 0.137868
62 0.639583 0.319853 0.040625 0.121324
62 0.608333 0.273897 0.026042 0.064338
56 0.447917 0.301471 0.039583 0.040441
56 0.064583 0.722426 0.128125 0.551471
58 0.205208 0.340074 0.068750 0.110294
