0 0.664583 0.590074 0.154167 0.534926
0 0.588542 0.415441 0.107292 0.501838
62 0.095833 0.715074 0.183333 0.564338
0 0.883333 0.669118 0.227083 0.566176
62 0.967708 0.246324 0.055208 0.077206
62 0.340625 0.398897 0.151042 0.299632
