0 0.512500 0.544118 0.111458 0.501838
62 0.068750 0.729779 0.130208 0.481618
63 0.837500 0.575368 0.070833 0.104779
0 0.592708 0.593750 0.093750 0.310662
62 0.913542 0.549632 0.080208 0.185662
62 0.376042 0.454044 0.106250 0.196691
0 0.742708 0.586397 0.143750 0.369485
62 0.262500 0.590074 0.069792 0.305147
0 0.957292 0.474265 0.069792 0.229779
62 0.360417 0.305147 0.039583 0.049632
