0 0.672917 0.610294 0.156250 0.542279
0 0.902083 0.667279 0.191667 0.590074
0 0.585417 0.402574 0.138542 0.479779
62 0.967708 0.235294 0.054167 0.077206
62 0.081250 0.726103 0.153125 0.542279
62 0.333333 0.415441 0.156250 0.323529
