56 0.322917 0.689338 0.197917 0.538603
0 0.630208 0.406250 0.111458 0.476103
0 0.904167 0.477941 0.163542 0.373162
0 0.487500 0.323529 0.079167 0.231618
62 0.164583 0.391544 0.152083 0.154412
0 0.031250 0.266544 0.062500 0.123162
56 0.493750 0.588235 0.137500 0.235294
56 0.082292 0.794118 0.163542 0.406250
0 0.242708 0.242647 0.079167 0.101103
0 0.814583 0.314338 0.037500 0.106618
