0 0.493750 0.533088 0.165625 0.698529
56 0.836458 0.718750 0.191667 0.518382
0 0.273958 0.378676 0.159375 0.422794
56 0.685417 0.545956 0.068750 0.257353
62 0.965625 0.375000 0.059375 0.086397
56 0.597917 0.545956 0.072917 0.283088
