0 0.513542 0.387868 0.069792 0.343750
0 0.041667 0.318015 0.082292 0.297794
62 0.795833 0.516544 0.114583 0.253676
62 0.279167 0.354779 0.043750 0.097426
0 0.869792 0.470588 0.065625 0.233456
58 0.120833 0.444853 0.084375 0.136029
0 0.748958 0.384191 0.070833 0.191176
62 0.641667 0.338235 0.034375 0.102941
62 0.685417 0.382353 0.051042 0.139706
56 0.276042 0.783088 0.300000 0.402574
