0 0.704167 0.325368 0.105208 0.310662
0 0.873958 0.479779 0.157292 0.340074
56 0.377083 0.610294 0.134375 0.387868
62 0.279167 0.354779 0.109375 0.119485
56 0.093750 0.742647 0.186458 0.466912
56 0.940625 0.750000 0.116667 0.477941
0 0.220833 0.251838 0.065625 0.101103
