0 0.508333 0.439338 0.100000 0.419118
0 0.318750 0.378676 0.095833 0.283088
56 0.363542 0.667279 0.165625 0.395221
41 0.872917 0.819853 0.051042 0.113971
56 0.141667 0.770221 0.268750 0.431985
0 0.938542 0.534926 0.118750 0.426471
63 0.790625 0.591912 0.166667 0.367647
58 0.837500 0.246324 0.038542 0.128676
41 0.909375 0.757353 0.034375 0.145221
0 0.632292 0.408088 0.059375 0.209559
0 0.607292 0.308824 0.028125 0.047794
