56 0.753125 0.726103 0.186458 0.544118
0 0.851042 0.547794 0.200000 0.560662
56 0.595833 0.525735 0.139583 0.393382
0 0.742708 0.211397 0.039583 0.150735
62 0.818750 0.172794 0.061458 0.069853
0 0.639583 0.409926 0.133333 0.378676
66 0.123958 0.658088 0.083333 0.121324
56 0.475000 0.481618 0.120833 0.222426
0 0.559375 0.257353 0.086458 0.235294
