0 0.513542 0.389706 0.075000 0.312500
0 0.741667 0.393382 0.061458 0.200368
0 0.319792 0.415441 0.085417 0.253676
62 0.677083 0.417279 0.078125 0.200368
56 0.404167 0.549632 0.086458 0.329044
62 0.619792 0.343750 0.037500 0.106618
56 0.285417 0.746324 0.265625 0.457721
62 0.869792 0.641544 0.210417 0.400735
0 0.875000 0.387868 0.068750 0.097426
62 0.200000 0.380515 0.054167 0.121324
