0 0.523958 0.454044 0.132292 0.580882
2 0.044792 0.376838 0.089583 0.137868
2 0.048958 0.308824 0.070833 0.056985
0 0.623958 0.272059 0.038542 0.104779
0 0.694792 0.284926 0.040625 0.128676
2 0.108333 0.303309 0.057292 0.058824
58 0.380208 0.523897 0.057292 0.090074
