0 0.713542 0.323529 0.107292 0.314338
56 0.940625 0.751838 0.115625 0.481618
0 0.877083 0.481618 0.158333 0.325368
62 0.295833 0.356618 0.104167 0.117647
56 0.391667 0.602941 0.138542 0.375000
56 0.096875 0.740809 0.194792 0.474265
0 0.239583 0.255515 0.067708 0.102941
0 0.813542 0.275735 0.030208 0.040441
