0 0.491667 0.393382 0.083333 0.369485
0 0.221875 0.397059 0.138542 0.409926
0 0.812500 0.465074 0.093750 0.222426
62 0.738542 0.533088 0.068750 0.224265
56 0.248958 0.759191 0.232292 0.450368
62 0.684375 0.461397 0.057292 0.224265
58 0.833333 0.240809 0.066667 0.137868
0 0.626042 0.402574 0.057292 0.213235
56 0.927083 0.542279 0.110417 0.191176
