0 0.672917 0.409926 0.085417 0.343750
56 0.858333 0.751838 0.271875 0.483456
56 0.295833 0.602941 0.136458 0.253676
56 0.427083 0.599265 0.111458 0.159926
0 0.838542 0.397059 0.072917 0.242647
0 0.951042 0.314338 0.038542 0.101103
0 0.954167 0.466912 0.089583 0.235294
56 0.562500 0.533088 0.120833 0.181985
60 0.522917 0.750000 0.541667 0.363971
