0 0.481250 0.380515 0.078125 0.373162
0 0.134375 0.452206 0.162500 0.610294
63 0.940625 0.753676 0.116667 0.411765
58 0.854167 0.235294 0.072917 0.154412
56 0.264583 0.685662 0.255208 0.562500
62 0.628125 0.354779 0.047917 0.125000
0 0.932292 0.522059 0.122917 0.272059
62 0.871875 0.341912 0.065625 0.084559
