56 0.170833 0.738971 0.282292 0.492647
62 0.680208 0.538603 0.133333 0.275735
0 0.140625 0.536765 0.164583 0.500000
0 0.739583 0.512868 0.065625 0.318015
0 0.952083 0.426471 0.039583 0.101103
62 0.506250 0.420956 0.039583 0.101103
58 0.819792 0.477941 0.117708 0.224265
0 0.595833 0.398897 0.050000 0.253676
0 0.934375 0.593750 0.118750 0.244485
62 0.871875 0.417279 0.044792 0.102941
