0 0.866667 0.612132 0.202083 0.628676
0 0.641667 0.477941 0.138542 0.496324
0 0.714583 0.244485 0.042708 0.169118
56 0.562500 0.591912 0.144792 0.437500
0 0.528125 0.334559 0.086458 0.371324
56 0.796875 0.742647 0.250000 0.457721
62 0.792708 0.202206 0.063542 0.062500
66 0.054167 0.784926 0.106250 0.169118
56 0.440625 0.527574 0.091667 0.261029
62 0.820833 0.305147 0.062500 0.121324
62 0.622917 0.209559 0.031250 0.047794
