0 0.472917 0.376838 0.076042 0.343750
0 0.067708 0.318015 0.128125 0.466912
58 0.860417 0.264706 0.070833 0.215074
56 0.396875 0.540441 0.088542 0.257353
62 0.894792 0.352941 0.047917 0.091912
0 0.408333 0.402574 0.068750 0.242647
56 0.128125 0.687500 0.256250 0.568015
62 0.647917 0.376838 0.056250 0.137868
56 0.282292 0.672794 0.147917 0.494485
