0 0.511458 0.395221 0.096875 0.409926
0 0.263542 0.382353 0.127083 0.393382
56 0.297917 0.731618 0.203125 0.520221
0 0.798958 0.465074 0.095833 0.224265
56 0.914583 0.533088 0.096875 0.227941
58 0.854167 0.250000 0.052083 0.128676
62 0.727083 0.511029 0.054167 0.159926
62 0.696875 0.411765 0.047917 0.158088
