0 0.089583 0.308824 0.066667 0.301471
0 0.504167 0.352941 0.062500 0.299632
56 0.372917 0.753676 0.243750 0.459559
62 0.242708 0.338235 0.047917 0.102941
0 0.719792 0.308824 0.046875 0.075368
62 0.931250 0.338235 0.052083 0.121324
62 0.933333 0.601103 0.126042 0.352941
0 0.326042 0.601103 0.148958 0.400735
62 0.661458 0.349265 0.041667 0.121324
0 0.392708 0.338235 0.053125 0.145221
62 0.726042 0.461397 0.072917 0.248162
