0 0.486458 0.387868 0.076042 0.360294
0 0.145833 0.454044 0.158333 0.562500
63 0.927083 0.759191 0.139583 0.386029
58 0.853125 0.246324 0.069792 0.147059
0 0.910417 0.544118 0.173958 0.284926
62 0.625000 0.380515 0.046875 0.125000
62 0.664583 0.474265 0.036458 0.181985
56 0.262500 0.683824 0.270833 0.540441
0 0.431250 0.402574 0.063542 0.222426
