0 0.471875 0.562500 0.160417 0.869485
56 0.812500 0.722426 0.242708 0.461397
56 0.683333 0.544118 0.064583 0.240809
62 0.957292 0.382353 0.069792 0.080882
0 0.237500 0.525735 0.163542 0.716912
56 0.588542 0.580882 0.093750 0.244485
