0 0.505208 0.354779 0.060417 0.316176
56 0.396875 0.737132 0.195833 0.511029
0 0.102083 0.264706 0.058333 0.261029
62 0.251042 0.312500 0.044792 0.110294
62 0.911458 0.601103 0.173958 0.398897
62 0.620833 0.275735 0.029167 0.060662
62 0.709375 0.461397 0.072917 0.292279
