0 0.857292 0.599265 0.194792 0.681985
0 0.635417 0.477941 0.125000 0.498162
56 0.778125 0.735294 0.187500 0.525735
66 0.063542 0.746324 0.114583 0.169118
56 0.557292 0.551471 0.127083 0.457721
0 0.714583 0.218750 0.037500 0.132353
63 0.972917 0.503676 0.052083 0.156250
0 0.531250 0.272059 0.086458 0.261029
62 0.622917 0.200368 0.033333 0.044118
62 0.782292 0.189338 0.043750 0.064338
56 0.443750 0.514706 0.092708 0.250000
