56 0.755208 0.727941 0.185417 0.538603
0 0.852083 0.549632 0.202083 0.575368
0 0.637500 0.468750 0.135417 0.452206
64 0.204167 0.645221 0.042708 0.044118
62 0.831250 0.180147 0.059375 0.069853
0 0.757292 0.213235 0.043750 0.148897
