0 0.468750 0.579044 0.190625 0.821691
56 0.817708 0.737132 0.251042 0.459559
56 0.682292 0.586397 0.064583 0.268382
62 0.953125 0.411765 0.070833 0.077206
56 0.675000 0.742647 0.085417 0.323529
0 0.222917 0.455882 0.164583 0.579044
56 0.596875 0.590074 0.070833 0.248162
