0 0.504167 0.352941 0.064583 0.299632
0 0.086458 0.306985 0.066667 0.295956
56 0.369792 0.751838 0.246875 0.459559
62 0.241667 0.338235 0.047917 0.102941
0 0.720833 0.310662 0.047917 0.079044
62 0.935417 0.602941 0.119792 0.363971
62 0.932292 0.338235 0.052083 0.121324
62 0.662500 0.349265 0.041667 0.119485
0 0.322917 0.606618 0.147917 0.395221
0 0.391667 0.340074 0.053125 0.145221
62 0.733333 0.461397 0.069792 0.233456
62 0.625000 0.305147 0.026042 0.069853
