0 0.453125 0.566176 0.208333 0.862132
56 0.815625 0.722426 0.246875 0.476103
62 0.957292 0.386029 0.069792 0.079044
56 0.684375 0.547794 0.066667 0.229779
56 0.683333 0.661765 0.079167 0.397059
56 0.594792 0.580882 0.090625 0.250000
