0 0.370833 0.591912 0.121875 0.509191
0 0.688542 0.610294 0.137500 0.678309
58 0.476042 0.560662 0.078125 0.178309
57 0.048958 0.724265 0.097917 0.294118
58 0.288542 0.448529 0.080208 0.281250
57 0.286458 0.628676 0.343750 0.227941
58 0.106250 0.595588 0.090625 0.134191
