0 0.481250 0.380515 0.077083 0.363971
0 0.129167 0.413603 0.160417 0.540441
63 0.946875 0.748162 0.103125 0.428309
58 0.854167 0.233456 0.073958 0.154412
56 0.259375 0.680147 0.250000 0.560662
56 0.411458 0.518382 0.067708 0.222426
62 0.873958 0.334559 0.067708 0.086397
62 0.628125 0.352941 0.048958 0.126838
0 0.370833 0.310662 0.047917 0.110294
62 0.812500 0.314338 0.030208 0.062500
