0 0.725000 0.327206 0.103125 0.308824
56 0.101042 0.727941 0.200000 0.503676
56 0.405208 0.586397 0.143750 0.369485
62 0.313542 0.358456 0.097917 0.113971
56 0.944792 0.748162 0.106250 0.498162
0 0.876042 0.533088 0.184375 0.450368
0 0.261458 0.255515 0.066667 0.104779
0 0.835417 0.275735 0.032292 0.040441
56 0.623958 0.457721 0.092708 0.262868
