0 0.491667 0.402574 0.075000 0.387868
0 0.183333 0.444853 0.157292 0.505515
63 0.871875 0.672794 0.179167 0.261029
0 0.873958 0.531250 0.132292 0.281250
56 0.258333 0.680147 0.284375 0.481618
58 0.854167 0.266544 0.069792 0.156250
