0 0.527083 0.544118 0.159375 0.720588
56 0.827083 0.724265 0.182292 0.477941
56 0.680208 0.538603 0.069792 0.253676
62 0.955208 0.367647 0.070833 0.091912
62 0.890625 0.336397 0.077083 0.145221
0 0.214583 0.393382 0.157292 0.411765
63 0.954167 0.544118 0.075000 0.121324
