0 0.659375 0.621324 0.167708 0.615809
0 0.444792 0.658088 0.145833 0.678309
57 0.211458 0.759191 0.385417 0.375000
2 0.031250 0.562500 0.061458 0.071691
58 0.240625 0.448529 0.144792 0.371324
58 0.545833 0.648897 0.077083 0.224265
58 0.326042 0.455882 0.073958 0.310662
