0 0.428125 0.577206 0.117708 0.507353
0 0.713542 0.580882 0.123958 0.669118
58 0.544792 0.575368 0.078125 0.193015
57 0.060417 0.733456 0.119792 0.415441
57 0.289583 0.619485 0.198958 0.205882
2 0.065625 0.520221 0.091667 0.073529
56 0.815625 0.553309 0.038542 0.102941
58 0.131250 0.648897 0.106250 0.246324
58 0.335417 0.420956 0.083333 0.270221
