0 0.723958 0.330882 0.103125 0.303309
62 0.331250 0.358456 0.100000 0.113971
56 0.430208 0.536765 0.155208 0.358456
56 0.901042 0.748162 0.187500 0.492647
56 0.117708 0.722426 0.225000 0.459559
0 0.291667 0.257353 0.048958 0.091912
62 0.585417 0.373162 0.047917 0.082721
58 0.183333 0.250000 0.059375 0.101103
0 0.896875 0.477941 0.136458 0.334559
0 0.859375 0.275735 0.029167 0.042279
