0 0.686458 0.619485 0.140625 0.656250
0 0.444792 0.656250 0.197917 0.654412
57 0.284375 0.761029 0.505208 0.360294
58 0.592708 0.648897 0.083333 0.233456
2 0.128125 0.558824 0.083333 0.069853
58 0.323958 0.448529 0.152083 0.382353
