0 0.695833 0.608456 0.093750 0.656250
0 0.452083 0.645221 0.151042 0.678309
57 0.332292 0.755515 0.507292 0.329044
58 0.339583 0.448529 0.142708 0.380515
58 0.595833 0.643382 0.135417 0.238971
58 0.041667 0.720588 0.084375 0.233456
2 0.182292 0.553309 0.079167 0.060662
