0 0.481250 0.373162 0.080208 0.367647
58 0.867708 0.248162 0.069792 0.189338
56 0.177083 0.678309 0.300000 0.571691
56 0.414583 0.533088 0.084375 0.270221
62 0.955208 0.663603 0.080208 0.544118
0 0.092708 0.327206 0.183333 0.415441
62 0.893750 0.347426 0.061458 0.090074
