62 0.805208 0.764706 0.269792 0.441176
0 0.737500 0.490809 0.068750 0.104779
62 0.552083 0.538603 0.078125 0.244485
0 0.717708 0.415441 0.042708 0.156250
0 0.606250 0.553309 0.041667 0.165441
0 0.957292 0.538603 0.066667 0.183824
