56 0.315625 0.724265 0.202083 0.547794
0 0.620833 0.419118 0.106250 0.459559
0 0.905208 0.476103 0.163542 0.373162
62 0.140625 0.397059 0.145833 0.165441
0 0.471875 0.327206 0.069792 0.229779
56 0.482292 0.590074 0.135417 0.255515
56 0.088542 0.810662 0.175000 0.373162
0 0.015625 0.273897 0.031250 0.121324
0 0.793750 0.314338 0.036458 0.101103
60 0.782292 0.788603 0.397917 0.373162
