56 0.854167 0.742647 0.281250 0.509191
0 0.678125 0.386029 0.082292 0.362132
0 0.792708 0.382353 0.069792 0.250000
0 0.912500 0.420956 0.121875 0.180147
56 0.242708 0.670956 0.159375 0.409926
56 0.372917 0.604779 0.121875 0.189338
60 0.492708 0.757353 0.557292 0.382353
