0 0.427083 0.610294 0.161458 0.590074
0 0.734375 0.599265 0.108333 0.658088
57 0.351042 0.716912 0.442708 0.312500
58 0.623958 0.615809 0.127083 0.227941
58 0.082292 0.748162 0.150000 0.341912
58 0.368750 0.415441 0.097917 0.294118
