0 0.673958 0.408088 0.083333 0.340074
56 0.858333 0.750000 0.273958 0.487132
56 0.290625 0.599265 0.139583 0.248162
0 0.836458 0.395221 0.072917 0.244485
56 0.415625 0.602941 0.113542 0.163603
56 0.559375 0.531250 0.121875 0.187500
60 0.518750 0.748162 0.554167 0.362132
0 0.952083 0.466912 0.089583 0.240809
0 0.946875 0.314338 0.039583 0.102941
