0 0.468750 0.566176 0.171875 0.862132
56 0.811458 0.722426 0.244792 0.465074
56 0.683333 0.545956 0.064583 0.235294
62 0.957292 0.382353 0.069792 0.079044
0 0.237500 0.525735 0.161458 0.744485
56 0.591667 0.579044 0.088542 0.240809
