0 0.490625 0.441176 0.106250 0.457721
0 0.296875 0.386029 0.098958 0.303309
56 0.334375 0.670956 0.188542 0.466912
0 0.942708 0.601103 0.106250 0.459559
41 0.916667 0.893382 0.056250 0.134191
62 0.791667 0.610294 0.125000 0.363971
58 0.821875 0.253676 0.045833 0.128676
