0 0.468750 0.571691 0.191667 0.852941
56 0.815625 0.720588 0.247917 0.472426
62 0.957292 0.386029 0.069792 0.080882
56 0.683333 0.547794 0.066667 0.227941
56 0.592708 0.579044 0.086458 0.248162
0 0.236458 0.529412 0.167708 0.722426
