0 0.428125 0.590074 0.097917 0.580882
0 0.740625 0.597426 0.122917 0.689338
57 0.356250 0.683824 0.401042 0.251838
58 0.623958 0.597426 0.077083 0.218750
58 0.104167 0.716912 0.150000 0.319853
58 0.371875 0.415441 0.086458 0.286765
2 0.043750 0.512868 0.077083 0.064338
