0 0.468750 0.579044 0.189583 0.821691
56 0.813542 0.737132 0.254167 0.450368
56 0.681250 0.588235 0.066667 0.273897
62 0.954167 0.408088 0.069792 0.075368
63 0.946875 0.582721 0.082292 0.119485
56 0.596875 0.593750 0.078125 0.255515
56 0.677083 0.733456 0.085417 0.323529
0 0.221875 0.454044 0.166667 0.564338
