0 0.509375 0.439338 0.098958 0.419118
56 0.365625 0.667279 0.164583 0.384191
0 0.319792 0.380515 0.094792 0.283088
56 0.141667 0.766544 0.271875 0.431985
0 0.936458 0.534926 0.120833 0.422794
63 0.787500 0.593750 0.167708 0.360294
41 0.868750 0.814338 0.050000 0.117647
58 0.838542 0.244485 0.038542 0.128676
0 0.608333 0.306985 0.030208 0.045956
