0 0.471875 0.588235 0.189583 0.812500
56 0.815625 0.737132 0.250000 0.452206
62 0.956250 0.404412 0.068750 0.077206
56 0.681250 0.588235 0.067708 0.261029
63 0.947917 0.579044 0.082292 0.121324
56 0.597917 0.584559 0.072917 0.222426
0 0.223958 0.463235 0.183333 0.584559
