0 0.454167 0.586397 0.137500 0.507353
0 0.714583 0.590074 0.129167 0.650735
58 0.567708 0.579044 0.087500 0.194853
57 0.363542 0.641544 0.344792 0.229779
57 0.058333 0.733456 0.116667 0.419118
56 0.857292 0.558824 0.040625 0.101103
58 0.128125 0.659926 0.122917 0.268382
58 0.360417 0.417279 0.091667 0.277574
