0 0.494792 0.345588 0.076042 0.327206
56 0.395833 0.676471 0.160417 0.470588
0 0.327083 0.522059 0.139583 0.363971
0 0.373958 0.281250 0.044792 0.097426
0 0.105208 0.238971 0.061458 0.222426
0 0.679167 0.279412 0.033333 0.058824
62 0.244792 0.284926 0.042708 0.093750
58 0.201042 0.316176 0.076042 0.108456
62 0.619792 0.312500 0.037500 0.113971
62 0.667708 0.404412 0.063542 0.238971
