0 0.677083 0.617647 0.181250 0.737132
0 0.356250 0.617647 0.100000 0.663603
58 0.797917 0.606618 0.137500 0.696691
58 0.901042 0.523897 0.133333 0.617647
58 0.605208 0.509191 0.079167 0.246324
58 0.162500 0.542279 0.072917 0.132353
