0 0.650000 0.400735 0.085417 0.351103
0 0.891667 0.356618 0.059375 0.187500
56 0.466667 0.577206 0.102083 0.117647
0 0.551042 0.310662 0.028125 0.060662
56 0.901042 0.722426 0.164583 0.501838
0 0.742708 0.306985 0.038542 0.104779
56 0.337500 0.590074 0.128125 0.246324
0 0.966667 0.538603 0.063542 0.402574
58 0.469792 0.305147 0.041667 0.090074
62 0.789583 0.457721 0.075000 0.189338
