0 0.481250 0.380515 0.075000 0.362132
0 0.125000 0.411765 0.162500 0.549632
63 0.953125 0.748162 0.090625 0.345588
58 0.854167 0.233456 0.072917 0.154412
56 0.413542 0.522059 0.068750 0.216912
62 0.873958 0.332721 0.070833 0.086397
56 0.255208 0.674632 0.245833 0.562500
62 0.629167 0.352941 0.050000 0.126838
62 0.779167 0.591912 0.119792 0.207721
0 0.370833 0.312500 0.048958 0.110294
56 0.625000 0.738971 0.083333 0.334559
0 0.415625 0.409926 0.076042 0.235294
62 0.813542 0.314338 0.032292 0.064338
