0 0.472917 0.579044 0.191667 0.838235
56 0.817708 0.735294 0.244792 0.455882
56 0.682292 0.586397 0.070833 0.279412
62 0.956250 0.400735 0.067708 0.088235
63 0.950000 0.575368 0.081250 0.130515
56 0.593750 0.584559 0.075000 0.238971
