0 0.514583 0.382353 0.075000 0.321691
56 0.337500 0.737132 0.267708 0.516544
0 0.055208 0.325368 0.096875 0.305147
58 0.147917 0.420956 0.081250 0.132353
0 0.837500 0.459559 0.061458 0.250000
0 0.739583 0.341912 0.066667 0.110294
0 0.389583 0.356618 0.067708 0.147059
