0 0.467708 0.516544 0.158333 0.602941
56 0.737500 0.672794 0.175000 0.468750
56 0.559375 0.597426 0.114583 0.378676
0 0.887500 0.735294 0.221875 0.485294
0 0.279167 0.466912 0.118750 0.492647
62 0.950000 0.375000 0.097917 0.259191
