0 0.429167 0.590074 0.098958 0.579044
0 0.740625 0.597426 0.123958 0.685662
57 0.359375 0.683824 0.407292 0.251838
58 0.621875 0.597426 0.078125 0.216912
58 0.104167 0.715074 0.151042 0.323529
58 0.372917 0.415441 0.090625 0.288603
2 0.044792 0.514706 0.077083 0.062500
