0 0.671875 0.409926 0.085417 0.347426
56 0.859375 0.751838 0.270833 0.488971
56 0.430208 0.599265 0.111458 0.158088
0 0.855208 0.386029 0.068750 0.213235
56 0.297917 0.672794 0.143750 0.386029
0 0.955208 0.466912 0.087500 0.229779
56 0.553125 0.527574 0.077083 0.213235
0 0.507292 0.316176 0.036458 0.084559
0 0.956250 0.316176 0.036458 0.104779
