62 0.856250 0.783088 0.273958 0.352941
0 0.971875 0.575368 0.046875 0.211397
62 0.566667 0.555147 0.089583 0.218750
0 0.775000 0.540441 0.079167 0.136029
0 0.780208 0.439338 0.046875 0.152574
62 0.892708 0.514706 0.079167 0.132353
