0 0.507292 0.387868 0.066667 0.319853
0 0.742708 0.395221 0.065625 0.193015
66 0.894792 0.753676 0.160417 0.145221
62 0.677083 0.419118 0.072917 0.191176
0 0.352083 0.404412 0.072917 0.202206
62 0.827083 0.549632 0.164583 0.268382
56 0.433333 0.533088 0.076042 0.301471
56 0.209375 0.751838 0.237500 0.380515
62 0.976042 0.375000 0.045833 0.143382
62 0.238542 0.378676 0.050000 0.119485
62 0.629167 0.345588 0.032292 0.097426
0 0.860417 0.404412 0.059375 0.093750
58 0.565625 0.444853 0.037500 0.174632
