0 0.489583 0.397059 0.070833 0.382353
0 0.167708 0.444853 0.146875 0.573529
63 0.916667 0.735294 0.163542 0.338235
0 0.913542 0.556985 0.148958 0.312500
58 0.854167 0.253676 0.067708 0.150735
56 0.211458 0.705882 0.359375 0.582721
62 0.786458 0.534926 0.060417 0.273897
62 0.626042 0.376838 0.047917 0.123162
62 0.660417 0.472426 0.040625 0.178309
