0 0.490625 0.575368 0.128125 0.845588
56 0.813542 0.722426 0.243750 0.468750
62 0.956250 0.378676 0.072917 0.082721
56 0.681250 0.542279 0.065625 0.244485
56 0.569792 0.477941 0.063542 0.193015
63 0.948958 0.551471 0.078125 0.119485
56 0.681250 0.661765 0.077083 0.378676
