0 0.735417 0.604779 0.155208 0.667279
0 0.455208 0.591912 0.142708 0.514706
58 0.584375 0.582721 0.113542 0.198529
57 0.360417 0.656250 0.334375 0.237132
57 0.057292 0.735294 0.113542 0.397059
56 0.887500 0.562500 0.041667 0.108456
58 0.131250 0.670956 0.125000 0.266544
58 0.371875 0.417279 0.093750 0.290441
