0 0.657292 0.602941 0.153125 0.788603
0 0.319792 0.606618 0.129167 0.670956
58 0.820833 0.617647 0.188542 0.731618
58 0.148958 0.545956 0.068750 0.132353
56 0.941667 0.788603 0.103125 0.417279
58 0.938542 0.527574 0.117708 0.698529
