0 0.641667 0.599265 0.150000 0.797794
0 0.371875 0.648897 0.160417 0.643382
72 0.225000 0.531250 0.107292 0.380515
58 0.859375 0.455882 0.059375 0.066176
58 0.492708 0.448529 0.075000 0.099265
56 0.528125 0.672794 0.076042 0.290441
