0 0.706250 0.601103 0.134375 0.792279
0 0.356250 0.619485 0.110417 0.704044
58 0.792708 0.602941 0.131250 0.680147
58 0.621875 0.522059 0.103125 0.268382
58 0.873958 0.533088 0.162500 0.584559
58 0.164583 0.544118 0.070833 0.130515
