0 0.488542 0.345588 0.076042 0.334559
56 0.375000 0.670956 0.165625 0.441176
0 0.100000 0.237132 0.065625 0.202206
0 0.326042 0.520221 0.136458 0.362132
0 0.369792 0.286765 0.046875 0.106618
56 0.083333 0.674632 0.142708 0.571691
39 0.875000 0.722426 0.036458 0.161765
62 0.817708 0.481618 0.178125 0.253676
0 0.185417 0.264706 0.030208 0.062500
