0 0.481250 0.380515 0.078125 0.358456
0 0.104167 0.400735 0.171875 0.549632
58 0.862500 0.240809 0.073958 0.185662
0 0.212500 0.667279 0.277083 0.595588
56 0.416667 0.531250 0.077083 0.231618
62 0.903125 0.586397 0.068750 0.389706
62 0.641667 0.351103 0.043750 0.134191
62 0.789583 0.610294 0.117708 0.202206
0 0.417708 0.409926 0.077083 0.237132
