0 0.467708 0.588235 0.130208 0.511029
0 0.754167 0.599265 0.140625 0.683824
58 0.591667 0.584559 0.117708 0.202206
57 0.365625 0.667279 0.366667 0.216912
57 0.056250 0.740809 0.112500 0.391544
58 0.130208 0.676471 0.123958 0.266544
58 0.375000 0.417279 0.091667 0.286765
