0 0.455208 0.591912 0.143750 0.511029
0 0.734375 0.601103 0.154167 0.665441
58 0.583333 0.582721 0.112500 0.198529
57 0.360417 0.656250 0.333333 0.237132
57 0.058333 0.733456 0.114583 0.398897
58 0.130208 0.670956 0.126042 0.268382
58 0.370833 0.417279 0.093750 0.290441
56 0.885417 0.562500 0.041667 0.102941
