0 0.604167 0.419118 0.108333 0.455882
56 0.296875 0.720588 0.202083 0.536765
0 0.908333 0.476103 0.164583 0.371324
62 0.127083 0.404412 0.156250 0.172794
56 0.471875 0.523897 0.141667 0.400735
0 0.447917 0.330882 0.082292 0.231618
56 0.093750 0.806985 0.181250 0.382353
0 0.758333 0.310662 0.036458 0.102941
