0 0.469792 0.580882 0.185417 0.834559
56 0.811458 0.720588 0.248958 0.470588
56 0.682292 0.547794 0.065625 0.233456
62 0.957292 0.384191 0.069792 0.080882
0 0.236458 0.531250 0.171875 0.799632
56 0.682292 0.661765 0.080208 0.398897
56 0.593750 0.579044 0.083333 0.244485
