0 0.466667 0.404412 0.077083 0.325368
56 0.167708 0.770221 0.295833 0.441176
0 0.103125 0.284926 0.045833 0.191176
56 0.372917 0.599265 0.121875 0.367647
56 0.168750 0.545956 0.083333 0.299632
62 0.059375 0.397059 0.098958 0.174632
58 0.875000 0.284926 0.067708 0.200368
62 0.239583 0.321691 0.029167 0.053309
