0 0.480208 0.373162 0.079167 0.360294
58 0.866667 0.257353 0.073958 0.209559
0 0.079167 0.277574 0.155208 0.343750
56 0.179167 0.672794 0.359375 0.613971
56 0.409375 0.534926 0.083333 0.262868
62 0.650000 0.371324 0.058333 0.134191
62 0.896875 0.349265 0.045833 0.084559
62 0.609375 0.349265 0.036458 0.108456
