0 0.481250 0.373162 0.078125 0.363971
58 0.867708 0.246324 0.070833 0.183824
56 0.183333 0.678309 0.287500 0.586397
56 0.415625 0.534926 0.083333 0.272059
62 0.953125 0.661765 0.082292 0.540441
0 0.096875 0.393382 0.187500 0.553309
62 0.892708 0.347426 0.062500 0.091912
