0 0.355208 0.617647 0.103125 0.676471
0 0.700000 0.602941 0.154167 0.788603
58 0.795833 0.601103 0.132292 0.700368
58 0.896875 0.522059 0.134375 0.634191
58 0.607292 0.511029 0.083333 0.255515
58 0.163542 0.544118 0.072917 0.132353
