0 0.205208 0.483456 0.132292 0.362132
0 0.723958 0.472426 0.076042 0.264706
56 0.242708 0.750000 0.246875 0.424632
62 0.061458 0.420956 0.080208 0.183824
0 0.907292 0.531250 0.112500 0.191176
58 0.818750 0.468750 0.091667 0.246324
62 0.580208 0.408088 0.042708 0.132353
56 0.048958 0.812500 0.092708 0.369485
62 0.664583 0.488971 0.082292 0.204044
0 0.552083 0.341912 0.036458 0.176471
