0 0.468750 0.580882 0.189583 0.819853
56 0.812500 0.738971 0.251042 0.448529
56 0.681250 0.590074 0.068750 0.273897
62 0.954167 0.408088 0.069792 0.073529
63 0.946875 0.582721 0.082292 0.117647
56 0.596875 0.595588 0.077083 0.253676
56 0.677083 0.731618 0.084375 0.323529
0 0.220833 0.457721 0.167708 0.562500
