0 0.719792 0.332721 0.101042 0.292279
62 0.335417 0.356618 0.106250 0.119485
0 0.296875 0.255515 0.061458 0.101103
56 0.433333 0.533088 0.157292 0.343750
56 0.897917 0.742647 0.192708 0.511029
0 0.871875 0.275735 0.034375 0.045956
56 0.120833 0.724265 0.229167 0.457721
62 0.589583 0.373162 0.057292 0.093750
62 0.491667 0.347426 0.067708 0.121324
58 0.198958 0.253676 0.043750 0.106618
0 0.900000 0.476103 0.134375 0.340074
