0 0.866667 0.531250 0.171875 0.481618
56 0.358333 0.650735 0.159375 0.422794
0 0.665625 0.349265 0.113542 0.360294
62 0.240625 0.352941 0.112500 0.123162
0 0.178125 0.250000 0.062500 0.106618
56 0.556250 0.536765 0.123958 0.204044
56 0.083333 0.744485 0.165625 0.459559
56 0.937500 0.748162 0.121875 0.474265
