0 0.546875 0.420956 0.112500 0.422794
0 0.900000 0.514706 0.172917 0.431985
56 0.405208 0.623162 0.147917 0.281250
0 0.371875 0.347426 0.084375 0.242647
56 0.250000 0.762868 0.219792 0.443015
62 0.059375 0.443015 0.114583 0.189338
41 0.789583 0.685662 0.037500 0.102941
62 0.706250 0.476103 0.075000 0.242647
0 0.682292 0.314338 0.033333 0.102941
