0 0.492708 0.573529 0.119792 0.847426
56 0.818750 0.724265 0.243750 0.470588
56 0.681250 0.545956 0.067708 0.250000
62 0.955208 0.376838 0.070833 0.082721
56 0.583333 0.538603 0.086458 0.312500
63 0.948958 0.549632 0.081250 0.115809
