0 0.514583 0.384191 0.073958 0.325368
56 0.339583 0.737132 0.275000 0.522059
0 0.054167 0.327206 0.096875 0.306985
58 0.145833 0.420956 0.082292 0.134191
0 0.839583 0.465074 0.061458 0.250000
0 0.741667 0.345588 0.066667 0.112132
62 0.776042 0.514706 0.088542 0.262868
0 0.389583 0.356618 0.067708 0.145221
62 0.285417 0.347426 0.036458 0.101103
