0 0.493750 0.415441 0.081250 0.358456
0 0.130208 0.286765 0.045833 0.194853
62 0.703125 0.470588 0.123958 0.181985
56 0.391667 0.615809 0.130208 0.391544
56 0.191667 0.781250 0.231250 0.389706
0 0.206250 0.318015 0.030208 0.049632
62 0.610417 0.386029 0.038542 0.104779
0 0.373958 0.343750 0.046875 0.104779
