0 0.451042 0.643382 0.153125 0.670956
0 0.694792 0.604779 0.091667 0.652574
57 0.334375 0.757353 0.501042 0.323529
58 0.339583 0.448529 0.142708 0.380515
58 0.042708 0.722426 0.086458 0.238971
58 0.594792 0.643382 0.136458 0.235294
