0 0.440625 0.584559 0.115625 0.509191
0 0.709375 0.590074 0.129167 0.637868
57 0.347917 0.645221 0.327083 0.231618
58 0.553125 0.577206 0.078125 0.193015
57 0.060417 0.731618 0.120833 0.430147
58 0.131250 0.654412 0.107292 0.251838
58 0.339583 0.446691 0.093750 0.306985
