0 0.486458 0.402574 0.084375 0.369485
0 0.208333 0.413603 0.141667 0.452206
0 0.823958 0.477941 0.092708 0.233456
63 0.792708 0.591912 0.148958 0.209559
56 0.241667 0.742647 0.264583 0.474265
58 0.831250 0.250000 0.052083 0.137868
