0 0.427083 0.615809 0.183333 0.610294
0 0.725000 0.590074 0.100000 0.632353
57 0.342708 0.716912 0.447917 0.323529
58 0.622917 0.617647 0.127083 0.235294
58 0.080208 0.748162 0.150000 0.347426
58 0.372917 0.406250 0.126042 0.275735
