0 0.512500 0.397059 0.072917 0.341912
0 0.029167 0.314338 0.059375 0.292279
62 0.640625 0.340074 0.035417 0.108456
62 0.801042 0.522059 0.126042 0.290441
56 0.254167 0.775735 0.309375 0.409926
66 0.870833 0.713235 0.091667 0.086397
0 0.750000 0.386029 0.065625 0.191176
0 0.872917 0.465074 0.067708 0.233456
66 0.866667 0.716912 0.126042 0.159926
62 0.685417 0.382353 0.052083 0.145221
62 0.265625 0.354779 0.043750 0.090074
58 0.102083 0.452206 0.083333 0.130515
0 0.368750 0.378676 0.076042 0.181985
56 0.451042 0.461397 0.072917 0.187500
