
2	Nothing
3	Nothing
4	Nothing
5	Nothing
6	Nothing
7	Nothing
8	Nothing
9	Nothing
10	Nothing
11	Nothing
12	Nothing
13	Nothing
14	Nothing
15	Nothing
16	Nothing
17	Nothing
18	Nothing
19	Nothing
20	Nothing
21	Nothing
22	Nothing
23	Nothing
24	Nothing
25	Nothing
26	Nothing
27	Nothing
28	Nothing
29	Nothing
30	Nothing
31	Nothing
32	Nothing
33	Nothing
34	Nothing
35	Nothing
36	Nothing
37	Nothing
38	Nothing
39	Nothing
40	Nothing
41	Nothing
42	Nothing
43	Nothing
44	Nothing
45	Nothing
46	Nothing
47	Nothing
48	Nothing
49	Nothing
50	Nothing
51	Nothing
52	Nothing
53	Nothing
54	Nothing
55	Nothing
56	Nothing
57	Nothing
58	Nothing
59	Nothing
60	Nothing
61	Nothing
62	Nothing
63	Nothing
64	Nothing
65	Nothing
66	Nothing
67	Nothing
68	Nothing
69	Nothing
70	Nothing
71	Nothing
72	Nothing
73	Nothing
74	Nothing
75	Nothing
76	Nothing
77	Nothing
78	Nothing
79	Nothing
80	Nothing
81	Nothing
82	Nothing
83	Nothing
84	Nothing
85	Nothing
86	Nothing
87	Nothing
88	Nothing
89	Nothing
90	Nothing
91	Nothing
92	Nothing
93	Nothing
94	Nothing
95	Nothing
96	Nothing
97	Nothing
98	Nothing
99	Nothing
100	Nothing
101	Nothing
102	Nothing
103	Nothing
104	Nothing
105	Nothing
106	Nothing
107	Nothing
108	Nothing
109	Nothing
110	Nothing
111	Nothing
112	Nothing
113	Nothing
114	Nothing
115	Nothing
116	Nothing
117	Nothing
118	Nothing
119	Nothing
120	Nothing
121	Nothing
122	Nothing
123	Nothing
124	Nothing
125	Nothing
126	Nothing
127	Nothing
128	Nothing
129	Nothing
130	play with ball
131	play with ball
132	play with ball
133	play with ball
134	play with ball
135	play with ball
136	play with ball
137	play with ball
138	play with ball
139	play with ball
140	play with ball
141	play with ball
142	play with ball
143	play with ball
144	play with ball
145	play with ball
146	play with ball
147	play with ball
148	play with ball
149	play with ball
150	play with ball
151	play with ball
152	play with ball
153	play with ball
154	play with ball
155	play with ball
156	play with ball
157	play with ball
158	play with ball
159	play with ball
160	play with ball
161	play with ball
162	play with ball
163	play with ball
164	play with ball
165	play with ball
166	play with ball
167	play with ball
168	play with ball
169	play with ball
170	play with ball
171	play with ball
172	play with ball
173	play with ball
174	play with ball
175	play with ball
176	play with ball
177	play with ball
178	play with ball
179	play with ball
180	play with ball
181	play with ball
182	play with ball
183	play with ball
184	play with ball
185	play with ball
186	play with ball
187	play with ball
188	play with ball
189	play with ball
190	play with ball
191	play with ball
192	play with ball
193	play with ball
194	play with ball
195	play with ball
196	play with ball
197	play with ball
198	play with ball
199	play with ball
200	play with ball
201	play with ball
202	play with ball
203	play with ball
204	play with ball
205	play with ball
206	play with ball
207	play with ball
208	play with ball
209	play with ball
210	Nothing
211	Nothing
212	Nothing
213	Nothing
214	Nothing
215	Nothing
216	Nothing
217	Nothing
218	Nothing
219	Nothing
220	Nothing
221	Nothing
222	Nothing
223	Nothing
224	Nothing
225	Nothing
226	Nothing
227	Nothing
228	Nothing
229	Nothing
230	Nothing
231	Nothing
232	Nothing
233	Nothing
234	Nothing
235	Nothing
236	Nothing
237	Nothing
238	Nothing
239	Nothing
240	Nothing
241	Nothing
242	Nothing
243	Nothing
244	Nothing
245	Nothing
246	Nothing
247	Nothing
248	Nothing
249	Nothing
250	Nothing
251	Nothing
252	Nothing
253	Nothing
254	Nothing
255	Nothing
256	Nothing
257	Nothing
258	Nothing
259	Nothing
260	Nothing
261	Nothing
262	use bike
263	use bike
264	use bike
265	use bike
266	use bike
267	use bike
268	use bike
269	use bike
270	use bike
271	use bike
272	use bike
273	use bike
274	use bike
275	use bike
276	use bike
277	use bike
278	use bike
279	use bike
280	use bike
281	use bike
282	use bike
283	use bike
284	use bike
285	use bike
286	use bike
287	use bike
288	use bike
289	use bike
290	use bike
291	use bike
292	use bike
293	use bike
294	use bike
295	use bike
296	use bike
297	use bike
298	use bike
299	use bike
300	use bike
301	use bike
302	use bike
303	use bike
304	use bike
305	use bike
306	use bike
307	use bike
308	use bike
309	use bike
310	use bike
311	use bike
312	use bike
313	use bike
314	use bike
315	use bike
316	use bike
317	use bike
318	use bike
319	use bike
320	use bike
321	use bike
322	use bike
323	use bike
324	use bike
325	use bike
326	use bike
327	use bike
328	use bike
329	use bike
330	use bike
331	use bike
332	use bike
333	use bike
334	use bike
335	use bike
336	use bike
337	use bike
338	use bike
339	use bike
340	use bike
341	use bike
342	use bike
343	use bike
344	use bike
345	use bike
346	use bike
347	use bike
348	use bike
349	use bike
350	use bike
351	use bike
352	use bike
353	use bike
354	use bike
355	use bike
356	use bike
357	use bike
358	use bike
359	use bike
360	use bike
361	use bike
362	use bike
363	use bike
364	use bike
365	use bike
366	use bike
367	use bike
368	use bike
369	use bike
370	use bike
371	use bike
372	use bike
373	use bike
374	use bike
375	use bike
376	use bike
377	use bike
378	use bike
379	use bike
380	use bike
381	use bike
382	use bike
383	use bike
384	use bike
385	use bike
386	use bike
387	use bike
388	use bike
389	use bike
390	use bike
391	use bike
392	use bike
393	use bike
394	use bike
395	use bike
396	use bike
397	use bike
398	use bike
399	use bike
400	use bike
401	use bike
402	use bike
403	use bike
404	use bike
405	use bike
406	use bike
407	use bike
408	use bike
409	use bike
410	use bike
411	use bike
412	use bike
413	use bike
414	use bike
415	use bike
416	use bike
417	use bike
418	use bike
419	use bike
420	use bike
421	use bike
422	use bike
423	use bike
424	use bike
425	use bike
426	use bike
427	use bike
428	use bike
429	use bike
430	use bike
431	use bike
432	use bike
433	use bike
434	use bike
435	use bike
436	use bike
437	use bike
438	use bike
439	use bike
440	use bike
441	use bike
442	use bike
443	use bike
444	use bike
445	use bike
446	use bike
447	use bike
448	use bike
449	use bike
450	use bike
451	use bike
452	use bike
453	use bike
454	use bike
455	use bike
456	use bike
457	use bike
458	use bike
459	use bike
460	use bike
461	use bike
462	use bike
463	use bike
464	use bike
465	use bike
466	use bike
467	use bike
468	use bike
469	use bike
470	use bike
471	use bike
472	use bike
473	use bike
474	use bike
475	use bike
476	use bike
477	use bike
478	use bike
479	use bike
480	use bike
481	use bike
482	use bike
483	use bike
484	use bike
485	use bike
486	use bike
487	use bike
488	use bike
489	use bike
490	use bike
491	use bike
492	use bike
493	use bike
494	use bike
495	use bike
496	use bike
497	use bike
498	use bike
499	use bike
500	use bike
501	use bike
502	use bike
503	use bike
504	use bike
505	use bike
506	use bike
507	use bike
508	use bike
509	use bike
510	use bike
511	use bike
512	use bike
513	use bike
514	use bike
515	use bike
516	use bike
517	use bike
518	use bike
519	use bike
520	use bike
521	use bike
522	use bike
523	use bike
524	use bike
525	use bike
526	use bike
527	use bike
528	use bike
529	use bike
530	use bike
531	use bike
532	use bike
533	use bike
534	use bike
535	use bike
536	use bike
537	use bike
538	use bike
539	use bike
540	use bike
541	use bike
542	use bike
543	Nothing
544	Nothing
545	Nothing
546	Nothing
547	Nothing
548	Nothing
549	Nothing
550	Nothing
551	Nothing
552	Nothing
553	Nothing
554	Nothing
555	Nothing
556	Nothing
557	Nothing
558	Nothing
559	Nothing
560	Nothing
561	Nothing
562	Nothing
563	Nothing
564	Nothing
565	Nothing
566	Nothing
567	Nothing
568	Nothing
569	Nothing
570	Nothing
571	Nothing
572	Nothing
573	Nothing
574	Nothing
575	Nothing
576	Nothing
577	Nothing
578	Nothing
579	Nothing
580	Nothing
581	Nothing
582	Nothing
583	Nothing
584	Nothing
585	Nothing
586	Nothing
587	Nothing
588	Nothing
589	Nothing
590	Nothing
591	Nothing
592	Nothing
593	Nothing
594	Nothing
595	Nothing
596	Nothing
597	Nothing
598	Nothing
599	Nothing
600	Nothing
601	Nothing
602	Nothing
603	Nothing
604	Nothing
605	Nothing
606	Nothing
607	Nothing
608	Nothing
609	Nothing
610	Nothing
611	Nothing
612	Nothing
613	Nothing
614	Nothing
615	Nothing
616	Nothing
617	Nothing
618	Nothing
619	Nothing
620	Nothing
621	Nothing
622	Nothing
623	Nothing
624	Nothing
625	Nothing
626	Nothing
627	Nothing
628	Nothing
629	Nothing
630	Nothing
631	Nothing
632	Nothing
633	Nothing
634	Nothing
635	Nothing
636	Nothing
637	Nothing
638	Nothing
639	Nothing
640	Nothing
641	Nothing
642	Nothing
643	Nothing
644	Nothing
645	Nothing
646	Nothing
647	Nothing
648	Nothing
649	Nothing
650	Nothing
651	Nothing
652	Nothing
653	Nothing
654	Nothing
655	Nothing
656	Nothing
657	Nothing
658	Nothing
659	Nothing
660	Nothing
661	Nothing
662	Nothing
663	Nothing
664	Nothing
665	Nothing
666	Nothing
667	Nothing
668	Nothing
669	Nothing
670	Nothing
671	Nothing
672	Nothing
673	Nothing
674	Nothing
675	Nothing
676	Nothing
677	Nothing
678	Nothing
679	Nothing
680	Nothing
681	Nothing
682	Nothing
683	Nothing
684	sit on chair
685	sit on chair
686	sit on chair
687	sit on chair
688	sit on chair
689	sit on chair
690	sit on chair
691	sit on chair
692	sit on chair
693	sit on chair
694	sit on chair
695	sit on chair
696	sit on chair
697	sit on chair
698	sit on chair
699	sit on chair
700	sit on chair
701	sit on chair
702	sit on chair
703	sit on chair
704	sit on chair
705	sit on chair
706	sit on chair
707	sit on chair
708	sit on chair
709	sit on chair
710	sit on chair
711	sit on chair
712	sit on chair
713	sit on chair
714	sit on chair
715	sit on chair
716	sit on chair
717	sit on chair
718	sit on chair
719	sit on chair
720	sit on chair
721	sit on chair
722	sit on chair
723	sit on chair
724	sit on chair
725	sit on chair
726	sit on chair
727	sit on chair
728	sit on chair
729	sit on chair
730	sit on chair
731	sit on chair
732	sit on chair
733	sit on chair
734	sit on chair
735	sit on chair
736	sit on chair
737	sit on chair
738	sit on chair
739	sit on chair
740	sit on chair
741	sit on chair
742	sit on chair
743	sit on chair
744	sit on chair
745	sit on chair
746	sit on chair
747	sit on chair
748	sit on chair
749	sit on chair
750	sit on chair
751	sit on chair
752	sit on chair
753	sit on chair
754	sit on chair
755	sit on chair
756	sit on chair
757	sit on chair
758	sit on chair
759	sit on chair
760	sit on chair
761	sit on chair
762	sit on chair
763	sit on chair
764	sit on chair
765	sit on chair
766	sit on chair
767	sit on chair
768	sit on chair
769	sit on chair
770	sit on chair
771	sit on chair
772	sit on chair
773	sit on chair
774	sit on chair
775	sit on chair
776	sit on chair
777	sit on chair
778	sit on chair
779	Nothing
780	Nothing
781	Nothing
782	Nothing
783	Nothing
784	Nothing
785	Nothing
786	Nothing
787	Nothing
788	Nothing
789	Nothing
790	Nothing
791	Nothing
792	Nothing
793	Nothing
794	Nothing
795	Nothing
796	Nothing
797	Nothing
798	Nothing
799	Nothing
800	Nothing
801	Nothing
802	Nothing
803	Nothing
804	Nothing
805	Nothing
806	Nothing
807	Nothing
808	Nothing
809	Nothing
810	Nothing
811	Nothing
812	Nothing
813	Nothing
814	Nothing
815	Nothing
816	Nothing
817	Nothing
818	Nothing
819	Nothing
820	Nothing
821	Nothing
822	Nothing
823	Nothing
824	Nothing
825	Nothing
826	Nothing
827	Nothing
828	Nothing
829	Nothing
830	Nothing
831	Nothing
832	Nothing
833	Nothing
834	Nothing
835	Nothing
836	Nothing
837	Nothing
838	Nothing
839	Nothing
840	Nothing
841	Nothing
842	Nothing
843	Nothing
844	Nothing
845	Nothing
846	Nothing
847	Nothing
848	Nothing
848	Nothing